{
  "unit_plans_friendly": [
    {
      "initial_coord": [1, 3, -4],
      "num_moves": 6,
      "actions": [
        {
          "action_type": "ORIENT_4"
        },
        {
          "action_type": "MOVE"
        },
        {
          "action_type": "MOVE"
        },
        {
          "action_type": "MOVE"
        },
        {
          "action_type": "ORIENT_5"
        },
        {
          "action_type": "MOVE"
        },
        {
          "action_type": "MOVE"
        },
        {
          "action_type": "ATTACK"
        }
      ]
    },
    {
      "initial_coord": [2, -1, -1],
      "num_moves": 5,
      "actions": [
        {
          "action_type": "ORIENT_4"
        },
        {
          "action_type": "MOVE"
        },
        {
          "action_type": "MOVE"
        },
        {
          "action_type": "MOVE"
        },
        {
          "action_type": "ORIENT_3"
        },
        {
          "action_type": "ATTACK"
        },
        {
          "action_type": "ATTACK"
        }
      ]
    },
    {
      "initial_coord": [-1, 0, 1],
      "num_moves": 1,
      "actions": [
        {
          "action_type": "ORIENT_4"
        },
        {
          "action_type": "ATTACK"
        }
      ]
    },
    {
      "initial_coord": [1, -2, 1],
      "num_moves": 4,
      "actions": [
        {
          "action_type": "ORIENT_4"
        },
        {
          "action_type": "MOVE"
        },
        {
          "action_type": "MOVE"
        },
        {
          "action_type": "ORIENT_3"
        },
        {
          "action_type": "MOVE"
        },
        {
          "action_type": "ATTACK"
        }
      ]
    },
    {
      "initial_coord": [-3, -2, 5],
      "num_moves": 3,
      "actions": [
        {
          "action_type": "ORIENT_2"
        },
        {
          "action_type": "MOVE"
        },
        {
          "action_type": "MOVE"
        },
        {
          "action_type": "ORIENT_1"
        },
        {
          "action_type": "ATTACK"
        }
      ]
    }
  ],

  "unit_plans_enemy": [
    {
      "initial_coord": [-2, 0, 2],
      "num_moves": 1,
      "actions": [
        {
          "action_type": "ORIENT_1"
        },
        {
          "action_type": "ATTACK"
        }
      ]
    }

  ]
}
